<?xml version="1.0" encoding="utf-8"?>
<!-- Generator: Adobe Illustrator 23.0.3, SVG Export Plug-In . SVG Version: 6.00 Build 0)  -->
<svg version="1.1" id="Laag_1" xmlns="http://www.w3.org/2000/svg" xmlns:xlink="http://www.w3.org/1999/xlink" x="0px" y="0px"
	 viewBox="0 0 100 23.5" style="enable-background:new 0 0 100 23.5;" xml:space="preserve">
<g>
	<path d="M1,15.4c1.2,0.5,2.4,0.8,3.7,0.8c1,0,2.2-0.3,2.2-1.5c0-2.2-6-2.4-6-6.7c0-2.7,2.4-3.8,4.8-3.8c1.3,0,2.7,0.2,4,0.4v2.6
		C8.6,6.8,7.4,6.5,6.2,6.5c-0.7,0-1.8,0.3-1.8,1.2c0,2,6.2,2.3,6.2,6.7c0,1.4-0.7,4.1-5.5,4.1c-1.7,0-3.2-0.2-4.2-0.3V15.4z"/>
	<path d="M20.7,17.9c-1,0.2-2.1,0.4-3.2,0.4c-4.8,0-5.6-3.4-5.6-5.3c0-1.9,0.8-5.3,5.6-5.3c0.5,0,1.2,0.1,3.2,0.4v2.4
		C19.9,10.2,19,9.9,18,9.9c-1.6,0-2.3,1.6-2.3,2.9c0,2.1,0.9,3.2,3,3.2c0.4,0,1.3-0.2,2-0.4V17.9z"/>
	<path d="M22.9,3.7h3.6v4.3l-0.2,1.9h0.2c0.6-1.3,1.9-2.1,3.3-2.1c2.1,0,3,1.4,3,3.2v7.2h-3.6V12c0-0.7,0-1.6-0.9-1.6
		c-0.8,0-1.4,0.8-1.8,1.5v6.2h-3.6V3.7z"/>
	<path d="M35,13c0-1.9,0.8-5.3,5.6-5.3c4.8,0,5.6,3.4,5.6,5.3c0,1.9-0.8,5.3-5.6,5.3C35.8,18.3,35,14.9,35,13z M40.6,16.3
		c1.5,0,1.8-2.2,1.8-3.3c0-1.1-0.4-3.3-1.8-3.3c-1.4,0-1.8,2.2-1.8,3.3C38.8,14.1,39.2,16.3,40.6,16.3z"/>
	<path d="M51.9,9.8h0.2c0.6-1.3,1.9-2.1,3.3-2.1h0.4v3.2c-0.4-0.2-0.9-0.3-1.4-0.3c-1,0-1.8,0.4-2.4,1.3v6.2h-3.6V7.9h3.6L51.9,9.8z
		"/>
	<path d="M57.6,15.5c1.2,0.4,2.5,0.8,3.8,0.8c0.6,0,1.6-0.1,1.6-0.8c0-1.4-5.3-1.2-5.3-4.6c0-1.2,0.7-3.2,4.8-3.2
		c1.2,0,2.3,0.1,3.5,0.4v2.3c-0.9-0.3-2.1-0.7-3-0.7c-0.5,0-1.6,0.1-1.6,0.8c0,1.3,5.5,1.1,5.5,4.3c0,1.5-1.1,3.4-4.9,3.4
		c-1.4,0-2.9-0.2-4.3-0.5V15.5z"/>
	<path d="M69.5,3.7h3.6v2.7h-3.6V3.7z M69.5,7.9h3.6v10.1h-3.6V7.9z"/>
	<path d="M79.6,9.8h0.2c0.6-1.3,1.9-2.1,3.3-2.1c2.1,0,3,1.4,3,3.2v7.2h-3.6V12c0-0.7,0-1.6-0.9-1.6c-0.8,0-1.4,0.8-1.8,1.5v6.2
		h-3.6V7.9h3.6L79.6,9.8z"/>
	<path d="M99.1,17.3c0,3.4-2.7,4.6-5.6,4.6c-1.4,0-2.8-0.4-4.1-0.9l0.2-2.4c1.1,0.5,2.1,0.8,3.3,0.8c2.7,0,2.8-1.2,2.8-2.4l0.1-1.2
		h-0.2c-0.6,1.3-1.8,2.1-3.3,2.1c-2.8,0-3.9-2.5-3.9-5c0-2.7,1.3-5.3,4.4-5.3c1.2,0,1.9,0.4,2.8,1.1h0.2L96,7.9h3.2V17.3z
		 M95.5,10.8c-0.4-0.5-0.8-1-1.5-1c-1.5,0-1.8,1.9-1.8,3c0,0.9,0.3,2.4,1.5,2.4c0.9,0,1.4-0.7,1.8-1.4V10.8z"/>
</g>
</svg>
